…
A simple fit/predict example:

``` r

 model <- rand_forest(trees = 100, mtry = 1, mode = "classification") %>%
   set_engine(engine = "rotationForest")
 rot_for_fit <- model %>%
   fit(Class ~ ., data =  example_train)
 predict(rot_for_fit, new_data = example_train)
#> # A tibble: 554 x 1
#>    .pred_class
#>    <fct>      
#>  1 Class1     
#>  2 Class2     
#>  3 Class1     
#>  4 Class2     
#>  5 Class1     
#>  6 Class2     
#>  7 Class2     
#>  8 Class2     
#>  9 Class2     
#> 10 Class1     
#> # ... with 544 more rows
```
…
